100832545	30.457831325301203
100832545	30.457831325301203
97605051	31.329545454545453
97605051	31.329545454545453
98929587	30.75609756097561
98929587	30.75609756097561
98645346	31.320987654320987
98645346	31.320987654320987
102900713	30.183098591549296
102900713	30.183098591549296
