\relax 
\citation{c2}
\citation{c3}
\citation{4}
\providecommand \oddpage@label [2]{}
\@writefile{toc}{\contentsline {section}{\numberline {I}INTRODUCTION}{1}\protected@file@percent }
\@writefile{toc}{\contentsline {section}{\numberline {II}PROBLEMS}{1}\protected@file@percent }
\@writefile{toc}{\contentsline {subsection}{\numberline {II-A}Users time}{1}\protected@file@percent }
\@writefile{toc}{\contentsline {subsection}{\numberline {II-B}Mean of stops}{1}\protected@file@percent }
\@writefile{toc}{\contentsline {section}{\numberline {III}ENVIRONMENT}{1}\protected@file@percent }
\@writefile{toc}{\contentsline {subsection}{\numberline {III-A}Data elicitation}{1}\protected@file@percent }
\@writefile{toc}{\contentsline {subsection}{\numberline {III-B}Estimating users time}{1}\protected@file@percent }
\bibcite{c1}{1}
\bibcite{c2}{2}
\bibcite{c3}{3}
\bibcite{c4}{4}
\@writefile{loa}{\contentsline {algocf}{\numberline {1}{\ignorespaces $f_{1}$: Simulation function}}{2}\protected@file@percent }
\@writefile{toc}{\contentsline {subsection}{\numberline {III-C}NSGA II implementation}{2}\protected@file@percent }
\@writefile{loa}{\contentsline {algocf}{\numberline {2}{\ignorespaces $f_{1}$: NSGA II implementation}}{2}\protected@file@percent }
\@writefile{toc}{\contentsline {subsection}{\numberline {III-D}ADN of solution}{2}\protected@file@percent }
\@writefile{toc}{\contentsline {section}{\numberline {IV}RESULTS}{2}\protected@file@percent }
\@writefile{lof}{\contentsline {figure}{\numberline {1}{\ignorespaces Pareto Frontier from last generation}}{2}\protected@file@percent }
\newlabel{fig:rastrigin}{{1}{2}}
\@writefile{toc}{\contentsline {section}{\numberline {V}CONCLUSIONS}{2}\protected@file@percent }
\@writefile{toc}{\contentsline {section}{References}{2}\protected@file@percent }
